{
	"ImportPath": "gitlab.com/gitlab-org/gitlab-ci-multi-runner",
	"GoVersion": "go1.7",
	"GodepVersion": "v78",
	"Packages": [
		"./..."
	],
	"Deps": [
		{
			"ImportPath": "cloud.google.com/go/compute/metadata",
			"Comment": "v0.1.0-31-g05253f6",
			"Rev": "05253f6a829103296c351b643f6815aedd81a3fb"
		},
		{
			"ImportPath": "cloud.google.com/go/internal",
			"Comment": "v0.1.0-31-g05253f6",
			"Rev": "05253f6a829103296c351b643f6815aedd81a3fb"
		},
		{
			"ImportPath": "github.com/BurntSushi/toml",
			"Comment": "v0.2.0",
			"Rev": "bbd5bb678321a0d6e58f1099321dfa73391c1b6f"
		},
		{
			"ImportPath": "github.com/Microsoft/go-winio",
			"Comment": "v0.3.5-2-gce2922f",
			"Rev": "ce2922f643c8fd76b46cadc7f404a06282678b34"
		},
		{
			"ImportPath": "github.com/Sirupsen/logrus",
			"Comment": "v0.10.0",
			"Rev": "4b6ea7319e214d98c938f12692336f7ca9348d6b"
		},
		{
			"ImportPath": "github.com/ayufan/golang-kardianos-service",
			"Rev": "0c8eb6d8fff2e2fb884a7bfd23e183fb63c0eff3"
		},
		{
			"ImportPath": "github.com/beorn7/perks/quantile",
			"Rev": "4c0e84591b9aa9e6dcfdf3e020114cd81f89d5f9"
		},
		{
			"ImportPath": "github.com/blang/semver",
			"Comment": "v3.3.0",
			"Rev": "60ec3488bfea7cca02b021d106d9911120d25fe9"
		},
		{
			"ImportPath": "github.com/cloudfoundry-incubator/candiedyaml",
			"Rev": "99c3df83b51532e3615f851d8c2dbb638f5313bf"
		},
		{
			"ImportPath": "github.com/codegangsta/cli",
			"Comment": "v1.8.0-4-g142e6cd",
			"Rev": "142e6cd241a4dfbf7f07a018f1f8225180018da4"
		},
		{
			"ImportPath": "github.com/coreos/go-oidc/http",
			"Rev": "1efe0e1303a62da553fcb6beb8bd2aa9250c0ca8"
		},
		{
			"ImportPath": "github.com/coreos/go-oidc/jose",
			"Rev": "1efe0e1303a62da553fcb6beb8bd2aa9250c0ca8"
		},
		{
			"ImportPath": "github.com/coreos/go-oidc/key",
			"Rev": "1efe0e1303a62da553fcb6beb8bd2aa9250c0ca8"
		},
		{
			"ImportPath": "github.com/coreos/go-oidc/oauth2",
			"Rev": "1efe0e1303a62da553fcb6beb8bd2aa9250c0ca8"
		},
		{
			"ImportPath": "github.com/coreos/go-oidc/oidc",
			"Rev": "1efe0e1303a62da553fcb6beb8bd2aa9250c0ca8"
		},
		{
			"ImportPath": "github.com/coreos/go-systemd/journal",
			"Comment": "v11-10-g5c49e48",
			"Rev": "5c49e4850c879a0ddc061e8f4adcf307de8a8bc2"
		},
		{
			"ImportPath": "github.com/coreos/pkg/capnslog",
			"Comment": "v3",
			"Rev": "3ac0863d7acf3bc44daf49afef8919af12f704ef"
		},
		{
			"ImportPath": "github.com/coreos/pkg/health",
			"Comment": "v3",
			"Rev": "3ac0863d7acf3bc44daf49afef8919af12f704ef"
		},
		{
			"ImportPath": "github.com/coreos/pkg/httputil",
			"Comment": "v3",
			"Rev": "3ac0863d7acf3bc44daf49afef8919af12f704ef"
		},
		{
			"ImportPath": "github.com/coreos/pkg/timeutil",
			"Comment": "v3",
			"Rev": "3ac0863d7acf3bc44daf49afef8919af12f704ef"
		},
		{
			"ImportPath": "github.com/davecgh/go-spew/spew",
			"Comment": "v1.0.0",
			"Rev": "6cf5744a041a0022271cefed95ba843f6d87fd51"
		},
		{
			"ImportPath": "github.com/docker/distribution/digest",
			"Comment": "v2.6.0",
			"Rev": "325b0804fef3a66309d962357aac3c2ce3f4d329"
		},
		{
			"ImportPath": "github.com/docker/distribution/reference",
			"Comment": "v2.6.0",
			"Rev": "325b0804fef3a66309d962357aac3c2ce3f4d329"
		},
		{
			"ImportPath": "github.com/docker/docker/api/types",
			"Comment": "v1.13.0",
			"Rev": "49bf474f9ed7ce7143a59d1964ff7b7fd9b52178"
		},
		{
			"ImportPath": "github.com/docker/docker/api/types/blkiodev",
			"Comment": "v1.13.0",
			"Rev": "49bf474f9ed7ce7143a59d1964ff7b7fd9b52178"
		},
		{
			"ImportPath": "github.com/docker/docker/api/types/container",
			"Comment": "v1.13.0",
			"Rev": "49bf474f9ed7ce7143a59d1964ff7b7fd9b52178"
		},
		{
			"ImportPath": "github.com/docker/docker/api/types/events",
			"Comment": "v1.13.0",
			"Rev": "49bf474f9ed7ce7143a59d1964ff7b7fd9b52178"
		},
		{
			"ImportPath": "github.com/docker/docker/api/types/filters",
			"Comment": "v1.13.0",
			"Rev": "49bf474f9ed7ce7143a59d1964ff7b7fd9b52178"
		},
		{
			"ImportPath": "github.com/docker/docker/api/types/mount",
			"Comment": "v1.13.0",
			"Rev": "49bf474f9ed7ce7143a59d1964ff7b7fd9b52178"
		},
		{
			"ImportPath": "github.com/docker/docker/api/types/network",
			"Comment": "v1.13.0",
			"Rev": "49bf474f9ed7ce7143a59d1964ff7b7fd9b52178"
		},
		{
			"ImportPath": "github.com/docker/docker/api/types/reference",
			"Comment": "v1.13.0",
			"Rev": "49bf474f9ed7ce7143a59d1964ff7b7fd9b52178"
		},
		{
			"ImportPath": "github.com/docker/docker/api/types/registry",
			"Comment": "v1.13.0",
			"Rev": "49bf474f9ed7ce7143a59d1964ff7b7fd9b52178"
		},
		{
			"ImportPath": "github.com/docker/docker/api/types/strslice",
			"Comment": "v1.13.0",
			"Rev": "49bf474f9ed7ce7143a59d1964ff7b7fd9b52178"
		},
		{
			"ImportPath": "github.com/docker/docker/api/types/swarm",
			"Comment": "v1.13.0",
			"Rev": "49bf474f9ed7ce7143a59d1964ff7b7fd9b52178"
		},
		{
			"ImportPath": "github.com/docker/docker/api/types/time",
			"Comment": "v1.13.0",
			"Rev": "49bf474f9ed7ce7143a59d1964ff7b7fd9b52178"
		},
		{
			"ImportPath": "github.com/docker/docker/api/types/versions",
			"Comment": "v1.13.0",
			"Rev": "49bf474f9ed7ce7143a59d1964ff7b7fd9b52178"
		},
		{
			"ImportPath": "github.com/docker/docker/api/types/volume",
			"Comment": "v1.13.0",
			"Rev": "49bf474f9ed7ce7143a59d1964ff7b7fd9b52178"
		},
		{
			"ImportPath": "github.com/docker/docker/cliconfig/configfile",
			"Comment": "v1.13.0",
			"Rev": "49bf474f9ed7ce7143a59d1964ff7b7fd9b52178"
		},
		{
			"ImportPath": "github.com/docker/docker/client",
			"Comment": "v1.13.0",
			"Rev": "49bf474f9ed7ce7143a59d1964ff7b7fd9b52178"
		},
		{
			"ImportPath": "github.com/docker/docker/pkg/homedir",
			"Comment": "v1.13.0",
			"Rev": "49bf474f9ed7ce7143a59d1964ff7b7fd9b52178"
		},
		{
			"ImportPath": "github.com/docker/docker/pkg/mount",
			"Comment": "v1.13.0",
			"Rev": "49bf474f9ed7ce7143a59d1964ff7b7fd9b52178"
		},
		{
			"ImportPath": "github.com/docker/docker/pkg/tlsconfig",
			"Comment": "v1.13.0",
			"Rev": "49bf474f9ed7ce7143a59d1964ff7b7fd9b52178"
		},
		{
			"ImportPath": "github.com/docker/go-connections/nat",
			"Comment": "v0.2.1-4-g988efe9",
			"Rev": "988efe982fdecb46f01d53465878ff1f2ff411ce"
		},
		{
			"ImportPath": "github.com/docker/go-connections/sockets",
			"Comment": "v0.2.1-4-g988efe9",
			"Rev": "988efe982fdecb46f01d53465878ff1f2ff411ce"
		},
		{
			"ImportPath": "github.com/docker/go-connections/tlsconfig",
			"Comment": "v0.2.1-4-g988efe9",
			"Rev": "988efe982fdecb46f01d53465878ff1f2ff411ce"
		},
		{
			"ImportPath": "github.com/docker/go-units",
			"Comment": "v0.3.1-2-geb879ae",
			"Rev": "eb879ae3e2b84e2a142af415b679ddeda47ec71c"
		},
		{
			"ImportPath": "github.com/docker/machine/commands/mcndirs",
			"Comment": "docs-v0.8.2-2016-09-26-118-g7b7a141",
			"Rev": "7b7a141da84480342357c51838be142bf183b095"
		},
		{
			"ImportPath": "github.com/docker/machine/libmachine/log",
			"Comment": "docs-v0.8.2-2016-09-26-118-g7b7a141",
			"Rev": "7b7a141da84480342357c51838be142bf183b095"
		},
		{
			"ImportPath": "github.com/docker/machine/libmachine/mcnutils",
			"Comment": "docs-v0.8.2-2016-09-26-118-g7b7a141",
			"Rev": "7b7a141da84480342357c51838be142bf183b095"
		},
		{
			"ImportPath": "github.com/docker/machine/version",
			"Comment": "docs-v0.8.2-2016-09-26-118-g7b7a141",
			"Rev": "7b7a141da84480342357c51838be142bf183b095"
		},
		{
			"ImportPath": "github.com/docker/spdystream",
			"Rev": "449fdfce4d962303d702fec724ef0ad181c92528"
		},
		{
			"ImportPath": "github.com/docker/spdystream/spdy",
			"Rev": "449fdfce4d962303d702fec724ef0ad181c92528"
		},
		{
			"ImportPath": "github.com/emicklei/go-restful",
			"Comment": "v1.2-79-g89ef8af",
			"Rev": "89ef8af493ab468a45a42bb0d89a06fccdd2fb22"
		},
		{
			"ImportPath": "github.com/emicklei/go-restful/log",
			"Comment": "v1.2-79-g89ef8af",
			"Rev": "89ef8af493ab468a45a42bb0d89a06fccdd2fb22"
		},
		{
			"ImportPath": "github.com/emicklei/go-restful/swagger",
			"Comment": "v1.2-79-g89ef8af",
			"Rev": "89ef8af493ab468a45a42bb0d89a06fccdd2fb22"
		},
		{
			"ImportPath": "github.com/getsentry/raven-go",
			"Rev": "dffeb57df75d6a911f00232155194e43d79d38d7"
		},
		{
			"ImportPath": "github.com/ghodss/yaml",
			"Rev": "aa0c862057666179de291b67d9f093d12b5a8473"
		},
		{
			"ImportPath": "github.com/gogo/protobuf/proto",
			"Comment": "v0.2-61-gf20a144",
			"Rev": "f20a1444730c7d9949b880a0309e737d007def25"
		},
		{
			"ImportPath": "github.com/golang/glog",
			"Rev": "23def4e6c14b4da8ac2ed8007337bc5eb5007998"
		},
		{
			"ImportPath": "github.com/golang/mock/gomock",
			"Rev": "06883d979f10cc178f2716846215c8cf90f9e363"
		},
		{
			"ImportPath": "github.com/golang/protobuf/proto",
			"Rev": "f592bd283e9ef86337a432eb50e592278c3d534d"
		},
		{
			"ImportPath": "github.com/google/cadvisor/info/v1",
			"Comment": "v0.24.0-alpha1",
			"Rev": "2ed7198f77395ee9a172878a0a7ab92ab59a2cfd"
		},
		{
			"ImportPath": "github.com/google/gofuzz",
			"Rev": "fd52762d25a41827db7ef64c43756fd4b9f7e382"
		},
		{
			"ImportPath": "github.com/gorhill/cronexpr",
			"Comment": "1.0.0-3-gf098431",
			"Rev": "f0984319b44273e83de132089ae42b1810f4933b"
		},
		{
			"ImportPath": "github.com/imdario/mergo",
			"Comment": "0.2.2-6-g50d4dbd",
			"Rev": "50d4dbd4eb0e84778abe37cefef140271d96fade"
		},
		{
			"ImportPath": "github.com/jonboulle/clockwork",
			"Comment": "v0.1.0-2-ge3653ac",
			"Rev": "e3653ace2d63753697e0e5b07b9393971c0bba9d"
		},
		{
			"ImportPath": "github.com/juju/ratelimit",
			"Rev": "77ed1c8a01217656d2080ad51981f6e99adaa177"
		},
		{
			"ImportPath": "github.com/kardianos/osext",
			"Rev": "efacde03154693404c65e7aa7d461ac9014acd0c"
		},
		{
			"ImportPath": "github.com/matttproud/golang_protobuf_extensions/pbutil",
			"Comment": "v1.0.0-2-gc12348c",
			"Rev": "c12348ce28de40eed0136aa2b644d0ee0650e56c"
		},
		{
			"ImportPath": "github.com/minio/minio-go",
			"Comment": "v1.0.0-94-ge9fd7b8",
			"Rev": "e9fd7b820d9a87122e159439ca034472040a43ce"
		},
		{
			"ImportPath": "github.com/opencontainers/runc/libcontainer/cgroups",
			"Comment": "v0.0.9",
			"Rev": "94dc520a5732126985fec249f80c91b9e0601815"
		},
		{
			"ImportPath": "github.com/opencontainers/runc/libcontainer/cgroups/fs",
			"Comment": "v0.0.9",
			"Rev": "94dc520a5732126985fec249f80c91b9e0601815"
		},
		{
			"ImportPath": "github.com/opencontainers/runc/libcontainer/configs",
			"Comment": "v0.0.9",
			"Rev": "94dc520a5732126985fec249f80c91b9e0601815"
		},
		{
			"ImportPath": "github.com/opencontainers/runc/libcontainer/system",
			"Comment": "v0.0.9",
			"Rev": "94dc520a5732126985fec249f80c91b9e0601815"
		},
		{
			"ImportPath": "github.com/opencontainers/runc/libcontainer/user",
			"Comment": "v0.0.9",
			"Rev": "94dc520a5732126985fec249f80c91b9e0601815"
		},
		{
			"ImportPath": "github.com/opencontainers/runc/libcontainer/utils",
			"Comment": "v0.0.9",
			"Rev": "94dc520a5732126985fec249f80c91b9e0601815"
		},
		{
			"ImportPath": "github.com/pborman/uuid",
			"Comment": "v1.0-11-gc55201b",
			"Rev": "c55201b036063326c5b1b89ccfe45a184973d073"
		},
		{
			"ImportPath": "github.com/pkg/errors",
			"Comment": "v0.8.0-2-g248dadf",
			"Rev": "248dadf4e9068a0b3e79f02ed0a610d935de5302"
		},
		{
			"ImportPath": "github.com/prometheus/client_golang/prometheus",
			"Comment": "v0.8.0-9-g334af01",
			"Rev": "334af0119a8f8fb6af5bb950d535c482cac7f836"
		},
		{
			"ImportPath": "github.com/prometheus/client_golang/prometheus/promhttp",
			"Comment": "v0.8.0-9-g334af01",
			"Rev": "334af0119a8f8fb6af5bb950d535c482cac7f836"
		},
		{
			"ImportPath": "github.com/prometheus/client_model/go",
			"Comment": "model-0.0.2-12-gfa8ad6f",
			"Rev": "fa8ad6fec33561be4280a8f0514318c79d7f6cb6"
		},
		{
			"ImportPath": "github.com/prometheus/common/expfmt",
			"Rev": "ebdfc6da46522d58825777cf1f90490a5b1ef1d8"
		},
		{
			"ImportPath": "github.com/prometheus/common/internal/bitbucket.org/ww/goautoneg",
			"Rev": "ebdfc6da46522d58825777cf1f90490a5b1ef1d8"
		},
		{
			"ImportPath": "github.com/prometheus/common/model",
			"Rev": "ebdfc6da46522d58825777cf1f90490a5b1ef1d8"
		},
		{
			"ImportPath": "github.com/prometheus/procfs",
			"Rev": "abf152e5f3e97f2fafac028d2cc06c1feb87ffa5"
		},
		{
			"ImportPath": "github.com/spf13/pflag",
			"Rev": "4f9190456aed1c2113ca51ea9b89219747458dc1"
		},
		{
			"ImportPath": "github.com/stretchr/objx",
			"Rev": "cbeaeb16a013161a98496fad62933b1d21786672"
		},
		{
			"ImportPath": "github.com/stretchr/testify/assert",
			"Rev": "1297dc01ed0a819ff634c89707081a4df43baf6b"
		},
		{
			"ImportPath": "github.com/stretchr/testify/mock",
			"Rev": "1297dc01ed0a819ff634c89707081a4df43baf6b"
		},
		{
			"ImportPath": "github.com/stretchr/testify/require",
			"Rev": "1297dc01ed0a819ff634c89707081a4df43baf6b"
		},
		{
			"ImportPath": "github.com/ugorji/go/codec",
			"Rev": "4a1cb5252a6951f715a85d0e4be334c2a2dbf2a2"
		},
		{
			"ImportPath": "gitlab.com/ayufan/golang-cli-helpers",
			"Rev": "0a14b63a7466ee44de4a90f998fad73afa8482bf"
		},
		{
			"ImportPath": "golang.org/x/crypto/curve25519",
			"Rev": "1f22c0103821b9390939b6776727195525381532"
		},
		{
			"ImportPath": "golang.org/x/crypto/ssh",
			"Rev": "1f22c0103821b9390939b6776727195525381532"
		},
		{
			"ImportPath": "golang.org/x/net/context",
			"Rev": "f2499483f923065a842d38eb4c7f1927e6fc6e6d"
		},
		{
			"ImportPath": "golang.org/x/net/context/ctxhttp",
			"Rev": "f2499483f923065a842d38eb4c7f1927e6fc6e6d"
		},
		{
			"ImportPath": "golang.org/x/net/lex/httplex",
			"Rev": "f2499483f923065a842d38eb4c7f1927e6fc6e6d"
		},
		{
			"ImportPath": "golang.org/x/net/http2",
			"Rev": "f2499483f923065a842d38eb4c7f1927e6fc6e6d"
		},
		{
			"ImportPath": "golang.org/x/net/http2/hpack",
			"Rev": "f2499483f923065a842d38eb4c7f1927e6fc6e6d"
		},
		{
			"ImportPath": "golang.org/x/net/idna",
			"Rev": "f2499483f923065a842d38eb4c7f1927e6fc6e6d"
		},
		{
			"ImportPath": "golang.org/x/net/proxy",
			"Rev": "f2499483f923065a842d38eb4c7f1927e6fc6e6d"
		},
		{
			"ImportPath": "golang.org/x/net/websocket",
			"Rev": "f2499483f923065a842d38eb4c7f1927e6fc6e6d"
		},
		{
			"ImportPath": "golang.org/x/oauth2",
			"Rev": "3b966c7f301c0c71c53d94dc632a62df0a682cd7"
		},
		{
			"ImportPath": "golang.org/x/oauth2/google",
			"Rev": "3b966c7f301c0c71c53d94dc632a62df0a682cd7"
		},
		{
			"ImportPath": "golang.org/x/oauth2/internal",
			"Rev": "3b966c7f301c0c71c53d94dc632a62df0a682cd7"
		},
		{
			"ImportPath": "golang.org/x/oauth2/jws",
			"Rev": "3b966c7f301c0c71c53d94dc632a62df0a682cd7"
		},
		{
			"ImportPath": "golang.org/x/oauth2/jwt",
			"Rev": "3b966c7f301c0c71c53d94dc632a62df0a682cd7"
		},
		{
			"ImportPath": "golang.org/x/sys/unix",
			"Rev": "98fc11432b951eb53c62602ba4ae99d03c1fb7e2"
		},
		{
			"ImportPath": "golang.org/x/sys/windows",
			"Rev": "98fc11432b951eb53c62602ba4ae99d03c1fb7e2"
		},
		{
			"ImportPath": "golang.org/x/sys/windows/registry",
			"Rev": "98fc11432b951eb53c62602ba4ae99d03c1fb7e2"
		},
		{
			"ImportPath": "golang.org/x/sys/windows/svc",
			"Rev": "98fc11432b951eb53c62602ba4ae99d03c1fb7e2"
		},
		{
			"ImportPath": "golang.org/x/sys/windows/svc/eventlog",
			"Rev": "98fc11432b951eb53c62602ba4ae99d03c1fb7e2"
		},
		{
			"ImportPath": "golang.org/x/sys/windows/svc/mgr",
			"Rev": "98fc11432b951eb53c62602ba4ae99d03c1fb7e2"
		},
		{
			"ImportPath": "google.golang.org/appengine",
			"Rev": "e951d3868b377b14f4e60efa3a301532ee3c1ebf"
		},
		{
			"ImportPath": "google.golang.org/appengine/internal",
			"Rev": "e951d3868b377b14f4e60efa3a301532ee3c1ebf"
		},
		{
			"ImportPath": "google.golang.org/appengine/internal/app_identity",
			"Rev": "e951d3868b377b14f4e60efa3a301532ee3c1ebf"
		},
		{
			"ImportPath": "google.golang.org/appengine/internal/base",
			"Rev": "e951d3868b377b14f4e60efa3a301532ee3c1ebf"
		},
		{
			"ImportPath": "google.golang.org/appengine/internal/datastore",
			"Rev": "e951d3868b377b14f4e60efa3a301532ee3c1ebf"
		},
		{
			"ImportPath": "google.golang.org/appengine/internal/log",
			"Rev": "e951d3868b377b14f4e60efa3a301532ee3c1ebf"
		},
		{
			"ImportPath": "google.golang.org/appengine/internal/modules",
			"Rev": "e951d3868b377b14f4e60efa3a301532ee3c1ebf"
		},
		{
			"ImportPath": "google.golang.org/appengine/internal/remote_api",
			"Rev": "e951d3868b377b14f4e60efa3a301532ee3c1ebf"
		},
		{
			"ImportPath": "google.golang.org/cloud/compute/metadata",
			"Comment": "v0.6.0-40-g70d0953",
			"Rev": "70d0953732b7f6b4efcb672f3044676c6581339c"
		},
		{
			"ImportPath": "google.golang.org/cloud/internal",
			"Comment": "v0.6.0-40-g70d0953",
			"Rev": "70d0953732b7f6b4efcb672f3044676c6581339c"
		},
		{
			"ImportPath": "gopkg.in/inf.v0",
			"Comment": "v0.9.0",
			"Rev": "3887ee99ecf07df5b447e9b00d9c0b2adaa9f3e4"
		},
		{
			"ImportPath": "gopkg.in/yaml.v2",
			"Rev": "e4d366fc3c7938e2958e662b4258c7a89e1f0e3e"
		},
		{
			"ImportPath": "k8s.io/kubernetes/federation/apis/federation",
			"Comment": "v1.3.5",
			"Rev": "b0deb2eb8f4037421077f77cb163dbb4c0a2a9f5"
		},
		{
			"ImportPath": "k8s.io/kubernetes/federation/apis/federation/install",
			"Comment": "v1.3.5",
			"Rev": "b0deb2eb8f4037421077f77cb163dbb4c0a2a9f5"
		},
		{
			"ImportPath": "k8s.io/kubernetes/federation/apis/federation/v1beta1",
			"Comment": "v1.3.5",
			"Rev": "b0deb2eb8f4037421077f77cb163dbb4c0a2a9f5"
		},
		{
			"ImportPath": "k8s.io/kubernetes/pkg/api",
			"Comment": "v1.3.5",
			"Rev": "b0deb2eb8f4037421077f77cb163dbb4c0a2a9f5"
		},
		{
			"ImportPath": "k8s.io/kubernetes/pkg/api/endpoints",
			"Comment": "v1.3.5",
			"Rev": "b0deb2eb8f4037421077f77cb163dbb4c0a2a9f5"
		},
		{
			"ImportPath": "k8s.io/kubernetes/pkg/api/errors",
			"Comment": "v1.3.5",
			"Rev": "b0deb2eb8f4037421077f77cb163dbb4c0a2a9f5"
		},
		{
			"ImportPath": "k8s.io/kubernetes/pkg/api/install",
			"Comment": "v1.3.5",
			"Rev": "b0deb2eb8f4037421077f77cb163dbb4c0a2a9f5"
		},
		{
			"ImportPath": "k8s.io/kubernetes/pkg/api/meta",
			"Comment": "v1.3.5",
			"Rev": "b0deb2eb8f4037421077f77cb163dbb4c0a2a9f5"
		},
		{
			"ImportPath": "k8s.io/kubernetes/pkg/api/meta/metatypes",
			"Comment": "v1.3.5",
			"Rev": "b0deb2eb8f4037421077f77cb163dbb4c0a2a9f5"
		},
		{
			"ImportPath": "k8s.io/kubernetes/pkg/api/pod",
			"Comment": "v1.3.5",
			"Rev": "b0deb2eb8f4037421077f77cb163dbb4c0a2a9f5"
		},
		{
			"ImportPath": "k8s.io/kubernetes/pkg/api/resource",
			"Comment": "v1.3.5",
			"Rev": "b0deb2eb8f4037421077f77cb163dbb4c0a2a9f5"
		},
		{
			"ImportPath": "k8s.io/kubernetes/pkg/api/service",
			"Comment": "v1.3.5",
			"Rev": "b0deb2eb8f4037421077f77cb163dbb4c0a2a9f5"
		},
		{
			"ImportPath": "k8s.io/kubernetes/pkg/api/testapi",
			"Comment": "v1.3.5",
			"Rev": "b0deb2eb8f4037421077f77cb163dbb4c0a2a9f5"
		},
		{
			"ImportPath": "k8s.io/kubernetes/pkg/api/unversioned",
			"Comment": "v1.3.5",
			"Rev": "b0deb2eb8f4037421077f77cb163dbb4c0a2a9f5"
		},
		{
			"ImportPath": "k8s.io/kubernetes/pkg/api/unversioned/validation",
			"Comment": "v1.3.5",
			"Rev": "b0deb2eb8f4037421077f77cb163dbb4c0a2a9f5"
		},
		{
			"ImportPath": "k8s.io/kubernetes/pkg/api/util",
			"Comment": "v1.3.5",
			"Rev": "b0deb2eb8f4037421077f77cb163dbb4c0a2a9f5"
		},
		{
			"ImportPath": "k8s.io/kubernetes/pkg/api/v1",
			"Comment": "v1.3.5",
			"Rev": "b0deb2eb8f4037421077f77cb163dbb4c0a2a9f5"
		},
		{
			"ImportPath": "k8s.io/kubernetes/pkg/api/validation",
			"Comment": "v1.3.5",
			"Rev": "b0deb2eb8f4037421077f77cb163dbb4c0a2a9f5"
		},
		{
			"ImportPath": "k8s.io/kubernetes/pkg/apimachinery",
			"Comment": "v1.3.5",
			"Rev": "b0deb2eb8f4037421077f77cb163dbb4c0a2a9f5"
		},
		{
			"ImportPath": "k8s.io/kubernetes/pkg/apimachinery/registered",
			"Comment": "v1.3.5",
			"Rev": "b0deb2eb8f4037421077f77cb163dbb4c0a2a9f5"
		},
		{
			"ImportPath": "k8s.io/kubernetes/pkg/apis/apps",
			"Comment": "v1.3.5",
			"Rev": "b0deb2eb8f4037421077f77cb163dbb4c0a2a9f5"
		},
		{
			"ImportPath": "k8s.io/kubernetes/pkg/apis/apps/install",
			"Comment": "v1.3.5",
			"Rev": "b0deb2eb8f4037421077f77cb163dbb4c0a2a9f5"
		},
		{
			"ImportPath": "k8s.io/kubernetes/pkg/apis/apps/v1alpha1",
			"Comment": "v1.3.5",
			"Rev": "b0deb2eb8f4037421077f77cb163dbb4c0a2a9f5"
		},
		{
			"ImportPath": "k8s.io/kubernetes/pkg/apis/authentication.k8s.io",
			"Comment": "v1.3.5",
			"Rev": "b0deb2eb8f4037421077f77cb163dbb4c0a2a9f5"
		},
		{
			"ImportPath": "k8s.io/kubernetes/pkg/apis/authentication.k8s.io/install",
			"Comment": "v1.3.5",
			"Rev": "b0deb2eb8f4037421077f77cb163dbb4c0a2a9f5"
		},
		{
			"ImportPath": "k8s.io/kubernetes/pkg/apis/authentication.k8s.io/v1beta1",
			"Comment": "v1.3.5",
			"Rev": "b0deb2eb8f4037421077f77cb163dbb4c0a2a9f5"
		},
		{
			"ImportPath": "k8s.io/kubernetes/pkg/apis/authorization",
			"Comment": "v1.3.5",
			"Rev": "b0deb2eb8f4037421077f77cb163dbb4c0a2a9f5"
		},
		{
			"ImportPath": "k8s.io/kubernetes/pkg/apis/authorization/install",
			"Comment": "v1.3.5",
			"Rev": "b0deb2eb8f4037421077f77cb163dbb4c0a2a9f5"
		},
		{
			"ImportPath": "k8s.io/kubernetes/pkg/apis/authorization/v1beta1",
			"Comment": "v1.3.5",
			"Rev": "b0deb2eb8f4037421077f77cb163dbb4c0a2a9f5"
		},
		{
			"ImportPath": "k8s.io/kubernetes/pkg/apis/autoscaling",
			"Comment": "v1.3.5",
			"Rev": "b0deb2eb8f4037421077f77cb163dbb4c0a2a9f5"
		},
		{
			"ImportPath": "k8s.io/kubernetes/pkg/apis/autoscaling/install",
			"Comment": "v1.3.5",
			"Rev": "b0deb2eb8f4037421077f77cb163dbb4c0a2a9f5"
		},
		{
			"ImportPath": "k8s.io/kubernetes/pkg/apis/autoscaling/v1",
			"Comment": "v1.3.5",
			"Rev": "b0deb2eb8f4037421077f77cb163dbb4c0a2a9f5"
		},
		{
			"ImportPath": "k8s.io/kubernetes/pkg/apis/batch",
			"Comment": "v1.3.5",
			"Rev": "b0deb2eb8f4037421077f77cb163dbb4c0a2a9f5"
		},
		{
			"ImportPath": "k8s.io/kubernetes/pkg/apis/batch/install",
			"Comment": "v1.3.5",
			"Rev": "b0deb2eb8f4037421077f77cb163dbb4c0a2a9f5"
		},
		{
			"ImportPath": "k8s.io/kubernetes/pkg/apis/batch/v1",
			"Comment": "v1.3.5",
			"Rev": "b0deb2eb8f4037421077f77cb163dbb4c0a2a9f5"
		},
		{
			"ImportPath": "k8s.io/kubernetes/pkg/apis/batch/v2alpha1",
			"Comment": "v1.3.5",
			"Rev": "b0deb2eb8f4037421077f77cb163dbb4c0a2a9f5"
		},
		{
			"ImportPath": "k8s.io/kubernetes/pkg/apis/componentconfig",
			"Comment": "v1.3.5",
			"Rev": "b0deb2eb8f4037421077f77cb163dbb4c0a2a9f5"
		},
		{
			"ImportPath": "k8s.io/kubernetes/pkg/apis/componentconfig/install",
			"Comment": "v1.3.5",
			"Rev": "b0deb2eb8f4037421077f77cb163dbb4c0a2a9f5"
		},
		{
			"ImportPath": "k8s.io/kubernetes/pkg/apis/componentconfig/v1alpha1",
			"Comment": "v1.3.5",
			"Rev": "b0deb2eb8f4037421077f77cb163dbb4c0a2a9f5"
		},
		{
			"ImportPath": "k8s.io/kubernetes/pkg/apis/extensions",
			"Comment": "v1.3.5",
			"Rev": "b0deb2eb8f4037421077f77cb163dbb4c0a2a9f5"
		},
		{
			"ImportPath": "k8s.io/kubernetes/pkg/apis/extensions/install",
			"Comment": "v1.3.5",
			"Rev": "b0deb2eb8f4037421077f77cb163dbb4c0a2a9f5"
		},
		{
			"ImportPath": "k8s.io/kubernetes/pkg/apis/extensions/v1beta1",
			"Comment": "v1.3.5",
			"Rev": "b0deb2eb8f4037421077f77cb163dbb4c0a2a9f5"
		},
		{
			"ImportPath": "k8s.io/kubernetes/pkg/apis/policy",
			"Comment": "v1.3.5",
			"Rev": "b0deb2eb8f4037421077f77cb163dbb4c0a2a9f5"
		},
		{
			"ImportPath": "k8s.io/kubernetes/pkg/apis/policy/install",
			"Comment": "v1.3.5",
			"Rev": "b0deb2eb8f4037421077f77cb163dbb4c0a2a9f5"
		},
		{
			"ImportPath": "k8s.io/kubernetes/pkg/apis/policy/v1alpha1",
			"Comment": "v1.3.5",
			"Rev": "b0deb2eb8f4037421077f77cb163dbb4c0a2a9f5"
		},
		{
			"ImportPath": "k8s.io/kubernetes/pkg/apis/rbac",
			"Comment": "v1.3.5",
			"Rev": "b0deb2eb8f4037421077f77cb163dbb4c0a2a9f5"
		},
		{
			"ImportPath": "k8s.io/kubernetes/pkg/apis/rbac/install",
			"Comment": "v1.3.5",
			"Rev": "b0deb2eb8f4037421077f77cb163dbb4c0a2a9f5"
		},
		{
			"ImportPath": "k8s.io/kubernetes/pkg/apis/rbac/v1alpha1",
			"Comment": "v1.3.5",
			"Rev": "b0deb2eb8f4037421077f77cb163dbb4c0a2a9f5"
		},
		{
			"ImportPath": "k8s.io/kubernetes/pkg/auth/user",
			"Comment": "v1.3.5",
			"Rev": "b0deb2eb8f4037421077f77cb163dbb4c0a2a9f5"
		},
		{
			"ImportPath": "k8s.io/kubernetes/pkg/capabilities",
			"Comment": "v1.3.5",
			"Rev": "b0deb2eb8f4037421077f77cb163dbb4c0a2a9f5"
		},
		{
			"ImportPath": "k8s.io/kubernetes/pkg/client/metrics",
			"Comment": "v1.3.5",
			"Rev": "b0deb2eb8f4037421077f77cb163dbb4c0a2a9f5"
		},
		{
			"ImportPath": "k8s.io/kubernetes/pkg/client/restclient",
			"Comment": "v1.3.5",
			"Rev": "b0deb2eb8f4037421077f77cb163dbb4c0a2a9f5"
		},
		{
			"ImportPath": "k8s.io/kubernetes/pkg/client/transport",
			"Comment": "v1.3.5",
			"Rev": "b0deb2eb8f4037421077f77cb163dbb4c0a2a9f5"
		},
		{
			"ImportPath": "k8s.io/kubernetes/pkg/client/typed/discovery",
			"Comment": "v1.3.5",
			"Rev": "b0deb2eb8f4037421077f77cb163dbb4c0a2a9f5"
		},
		{
			"ImportPath": "k8s.io/kubernetes/pkg/client/unversioned",
			"Comment": "v1.3.5",
			"Rev": "b0deb2eb8f4037421077f77cb163dbb4c0a2a9f5"
		},
		{
			"ImportPath": "k8s.io/kubernetes/pkg/client/unversioned/auth",
			"Comment": "v1.3.5",
			"Rev": "b0deb2eb8f4037421077f77cb163dbb4c0a2a9f5"
		},
		{
			"ImportPath": "k8s.io/kubernetes/pkg/client/unversioned/clientcmd",
			"Comment": "v1.3.5",
			"Rev": "b0deb2eb8f4037421077f77cb163dbb4c0a2a9f5"
		},
		{
			"ImportPath": "k8s.io/kubernetes/pkg/client/unversioned/clientcmd/api",
			"Comment": "v1.3.5",
			"Rev": "b0deb2eb8f4037421077f77cb163dbb4c0a2a9f5"
		},
		{
			"ImportPath": "k8s.io/kubernetes/pkg/client/unversioned/clientcmd/api/latest",
			"Comment": "v1.3.5",
			"Rev": "b0deb2eb8f4037421077f77cb163dbb4c0a2a9f5"
		},
		{
			"ImportPath": "k8s.io/kubernetes/pkg/client/unversioned/clientcmd/api/v1",
			"Comment": "v1.3.5",
			"Rev": "b0deb2eb8f4037421077f77cb163dbb4c0a2a9f5"
		},
		{
			"ImportPath": "k8s.io/kubernetes/pkg/client/unversioned/fake",
			"Comment": "v1.3.5",
			"Rev": "b0deb2eb8f4037421077f77cb163dbb4c0a2a9f5"
		},
		{
			"ImportPath": "k8s.io/kubernetes/pkg/client/unversioned/remotecommand",
			"Comment": "v1.3.5",
			"Rev": "b0deb2eb8f4037421077f77cb163dbb4c0a2a9f5"
		},
		{
			"ImportPath": "k8s.io/kubernetes/pkg/conversion",
			"Comment": "v1.3.5",
			"Rev": "b0deb2eb8f4037421077f77cb163dbb4c0a2a9f5"
		},
		{
			"ImportPath": "k8s.io/kubernetes/pkg/conversion/queryparams",
			"Comment": "v1.3.5",
			"Rev": "b0deb2eb8f4037421077f77cb163dbb4c0a2a9f5"
		},
		{
			"ImportPath": "k8s.io/kubernetes/pkg/fields",
			"Comment": "v1.3.5",
			"Rev": "b0deb2eb8f4037421077f77cb163dbb4c0a2a9f5"
		},
		{
			"ImportPath": "k8s.io/kubernetes/pkg/httplog",
			"Comment": "v1.3.5",
			"Rev": "b0deb2eb8f4037421077f77cb163dbb4c0a2a9f5"
		},
		{
			"ImportPath": "k8s.io/kubernetes/pkg/kubelet/qos",
			"Comment": "v1.3.5",
			"Rev": "b0deb2eb8f4037421077f77cb163dbb4c0a2a9f5"
		},
		{
			"ImportPath": "k8s.io/kubernetes/pkg/kubelet/qos/util",
			"Comment": "v1.3.5",
			"Rev": "b0deb2eb8f4037421077f77cb163dbb4c0a2a9f5"
		},
		{
			"ImportPath": "k8s.io/kubernetes/pkg/kubelet/server/remotecommand",
			"Comment": "v1.3.5",
			"Rev": "b0deb2eb8f4037421077f77cb163dbb4c0a2a9f5"
		},
		{
			"ImportPath": "k8s.io/kubernetes/pkg/labels",
			"Comment": "v1.3.5",
			"Rev": "b0deb2eb8f4037421077f77cb163dbb4c0a2a9f5"
		},
		{
			"ImportPath": "k8s.io/kubernetes/pkg/master/ports",
			"Comment": "v1.3.5",
			"Rev": "b0deb2eb8f4037421077f77cb163dbb4c0a2a9f5"
		},
		{
			"ImportPath": "k8s.io/kubernetes/pkg/runtime",
			"Comment": "v1.3.5",
			"Rev": "b0deb2eb8f4037421077f77cb163dbb4c0a2a9f5"
		},
		{
			"ImportPath": "k8s.io/kubernetes/pkg/runtime/serializer",
			"Comment": "v1.3.5",
			"Rev": "b0deb2eb8f4037421077f77cb163dbb4c0a2a9f5"
		},
		{
			"ImportPath": "k8s.io/kubernetes/pkg/runtime/serializer/json",
			"Comment": "v1.3.5",
			"Rev": "b0deb2eb8f4037421077f77cb163dbb4c0a2a9f5"
		},
		{
			"ImportPath": "k8s.io/kubernetes/pkg/runtime/serializer/protobuf",
			"Comment": "v1.3.5",
			"Rev": "b0deb2eb8f4037421077f77cb163dbb4c0a2a9f5"
		},
		{
			"ImportPath": "k8s.io/kubernetes/pkg/runtime/serializer/recognizer",
			"Comment": "v1.3.5",
			"Rev": "b0deb2eb8f4037421077f77cb163dbb4c0a2a9f5"
		},
		{
			"ImportPath": "k8s.io/kubernetes/pkg/runtime/serializer/streaming",
			"Comment": "v1.3.5",
			"Rev": "b0deb2eb8f4037421077f77cb163dbb4c0a2a9f5"
		},
		{
			"ImportPath": "k8s.io/kubernetes/pkg/runtime/serializer/versioning",
			"Comment": "v1.3.5",
			"Rev": "b0deb2eb8f4037421077f77cb163dbb4c0a2a9f5"
		},
		{
			"ImportPath": "k8s.io/kubernetes/pkg/types",
			"Comment": "v1.3.5",
			"Rev": "b0deb2eb8f4037421077f77cb163dbb4c0a2a9f5"
		},
		{
			"ImportPath": "k8s.io/kubernetes/pkg/util",
			"Comment": "v1.3.5",
			"Rev": "b0deb2eb8f4037421077f77cb163dbb4c0a2a9f5"
		},
		{
			"ImportPath": "k8s.io/kubernetes/pkg/util/crypto",
			"Comment": "v1.3.5",
			"Rev": "b0deb2eb8f4037421077f77cb163dbb4c0a2a9f5"
		},
		{
			"ImportPath": "k8s.io/kubernetes/pkg/util/errors",
			"Comment": "v1.3.5",
			"Rev": "b0deb2eb8f4037421077f77cb163dbb4c0a2a9f5"
		},
		{
			"ImportPath": "k8s.io/kubernetes/pkg/util/flowcontrol",
			"Comment": "v1.3.5",
			"Rev": "b0deb2eb8f4037421077f77cb163dbb4c0a2a9f5"
		},
		{
			"ImportPath": "k8s.io/kubernetes/pkg/util/framer",
			"Comment": "v1.3.5",
			"Rev": "b0deb2eb8f4037421077f77cb163dbb4c0a2a9f5"
		},
		{
			"ImportPath": "k8s.io/kubernetes/pkg/util/hash",
			"Comment": "v1.3.5",
			"Rev": "b0deb2eb8f4037421077f77cb163dbb4c0a2a9f5"
		},
		{
			"ImportPath": "k8s.io/kubernetes/pkg/util/homedir",
			"Comment": "v1.3.5",
			"Rev": "b0deb2eb8f4037421077f77cb163dbb4c0a2a9f5"
		},
		{
			"ImportPath": "k8s.io/kubernetes/pkg/util/httpstream",
			"Comment": "v1.3.5",
			"Rev": "b0deb2eb8f4037421077f77cb163dbb4c0a2a9f5"
		},
		{
			"ImportPath": "k8s.io/kubernetes/pkg/util/httpstream/spdy",
			"Comment": "v1.3.5",
			"Rev": "b0deb2eb8f4037421077f77cb163dbb4c0a2a9f5"
		},
		{
			"ImportPath": "k8s.io/kubernetes/pkg/util/integer",
			"Comment": "v1.3.5",
			"Rev": "b0deb2eb8f4037421077f77cb163dbb4c0a2a9f5"
		},
		{
			"ImportPath": "k8s.io/kubernetes/pkg/util/intstr",
			"Comment": "v1.3.5",
			"Rev": "b0deb2eb8f4037421077f77cb163dbb4c0a2a9f5"
		},
		{
			"ImportPath": "k8s.io/kubernetes/pkg/util/json",
			"Comment": "v1.3.5",
			"Rev": "b0deb2eb8f4037421077f77cb163dbb4c0a2a9f5"
		},
		{
			"ImportPath": "k8s.io/kubernetes/pkg/util/net",
			"Comment": "v1.3.5",
			"Rev": "b0deb2eb8f4037421077f77cb163dbb4c0a2a9f5"
		},
		{
			"ImportPath": "k8s.io/kubernetes/pkg/util/net/sets",
			"Comment": "v1.3.5",
			"Rev": "b0deb2eb8f4037421077f77cb163dbb4c0a2a9f5"
		},
		{
			"ImportPath": "k8s.io/kubernetes/pkg/util/parsers",
			"Comment": "v1.3.5",
			"Rev": "b0deb2eb8f4037421077f77cb163dbb4c0a2a9f5"
		},
		{
			"ImportPath": "k8s.io/kubernetes/pkg/util/rand",
			"Comment": "v1.3.5",
			"Rev": "b0deb2eb8f4037421077f77cb163dbb4c0a2a9f5"
		},
		{
			"ImportPath": "k8s.io/kubernetes/pkg/util/runtime",
			"Comment": "v1.3.5",
			"Rev": "b0deb2eb8f4037421077f77cb163dbb4c0a2a9f5"
		},
		{
			"ImportPath": "k8s.io/kubernetes/pkg/util/sets",
			"Comment": "v1.3.5",
			"Rev": "b0deb2eb8f4037421077f77cb163dbb4c0a2a9f5"
		},
		{
			"ImportPath": "k8s.io/kubernetes/pkg/util/validation",
			"Comment": "v1.3.5",
			"Rev": "b0deb2eb8f4037421077f77cb163dbb4c0a2a9f5"
		},
		{
			"ImportPath": "k8s.io/kubernetes/pkg/util/validation/field",
			"Comment": "v1.3.5",
			"Rev": "b0deb2eb8f4037421077f77cb163dbb4c0a2a9f5"
		},
		{
			"ImportPath": "k8s.io/kubernetes/pkg/util/wait",
			"Comment": "v1.3.5",
			"Rev": "b0deb2eb8f4037421077f77cb163dbb4c0a2a9f5"
		},
		{
			"ImportPath": "k8s.io/kubernetes/pkg/util/wsstream",
			"Comment": "v1.3.5",
			"Rev": "b0deb2eb8f4037421077f77cb163dbb4c0a2a9f5"
		},
		{
			"ImportPath": "k8s.io/kubernetes/pkg/util/yaml",
			"Comment": "v1.3.5",
			"Rev": "b0deb2eb8f4037421077f77cb163dbb4c0a2a9f5"
		},
		{
			"ImportPath": "k8s.io/kubernetes/pkg/version",
			"Comment": "v1.3.5",
			"Rev": "b0deb2eb8f4037421077f77cb163dbb4c0a2a9f5"
		},
		{
			"ImportPath": "k8s.io/kubernetes/pkg/watch",
			"Comment": "v1.3.5",
			"Rev": "b0deb2eb8f4037421077f77cb163dbb4c0a2a9f5"
		},
		{
			"ImportPath": "k8s.io/kubernetes/pkg/watch/versioned",
			"Comment": "v1.3.5",
			"Rev": "b0deb2eb8f4037421077f77cb163dbb4c0a2a9f5"
		},
		{
			"ImportPath": "k8s.io/kubernetes/plugin/pkg/client/auth",
			"Comment": "v1.3.5",
			"Rev": "b0deb2eb8f4037421077f77cb163dbb4c0a2a9f5"
		},
		{
			"ImportPath": "k8s.io/kubernetes/plugin/pkg/client/auth/gcp",
			"Comment": "v1.3.5",
			"Rev": "b0deb2eb8f4037421077f77cb163dbb4c0a2a9f5"
		},
		{
			"ImportPath": "k8s.io/kubernetes/plugin/pkg/client/auth/oidc",
			"Comment": "v1.3.5",
			"Rev": "b0deb2eb8f4037421077f77cb163dbb4c0a2a9f5"
		},
		{
			"ImportPath": "k8s.io/kubernetes/third_party/forked/reflect",
			"Comment": "v1.3.5",
			"Rev": "b0deb2eb8f4037421077f77cb163dbb4c0a2a9f5"
		},
		{
			"ImportPath": "k8s.io/kubernetes/third_party/golang/netutil",
			"Comment": "v1.3.5",
			"Rev": "b0deb2eb8f4037421077f77cb163dbb4c0a2a9f5"
		},
		{
			"ImportPath": "github.com/opencontainers/runtime-spec/specs-go",
			"Comment": "v1.0.0-rc3-60-g8df6024",
			"Rev": "8df60240c3cf415da7d47e96784a193854bdecbc"
		},
		{
			"ImportPath": "github.com/opencontainers/runc/libcontainer/utils",
			"Comment": "v1.0.0-rc2-240-gce450bc",
			"Rev": "ce450bcc6c135cae93ee2a99d41a308c179ff6dc"
		}
	]
}
